ECE 270 Lab Files/Lab 12/tb_charbuf.vcd
$date
	Thu Apr 13 13:53:32 2023
$end
$version
	Icarus Verilog
$end
$timescale
	10us
$end
$scope module tb_charbuf $end
$var wire 32 ! out [31:0] $end
$var wire 1 " is_empty $end
$var reg 1 # bksp $end
$var reg 1 $ clk $end
$var reg 1 % clr $end
$var reg 1 & enable $end
$var reg 1 ' expected_is_empty $end
$var reg 32 ( expected_out [31:0] $end
$var reg 4 ) in_char [3:0] $end
$var reg 1 * is_ctrl $end
$var reg 384 + msg [383:0] $end
$var reg 1 , rst $end
$var reg 1 - copy_msg $end
$var integer 32 . passed [31:0] $end
$var integer 32 / total [31:0] $end
$scope function str_to_logic $end
$scope begin $ivl_for_loop0 $end
$var integer 32 0 i [31:0] $end
$upscope $end
$upscope $end
$scope module dut $end
$var wire 1 1 _000_ $end
$var wire 1 2 _001_ $end
$var wire 1 3 _002_ $end
$var wire 1 4 _007_ $end
$var wire 1 5 _008_ $end
$var wire 1 6 _009_ $end
$var wire 1 7 _010_ $end
$var wire 1 8 _014_ $end
$var wire 1 # bksp $end
$var wire 1 $ clk $end
$var wire 1 % clr $end
$var wire 1 & enable $end
$var wire 4 9 in_char [3:0] $end
$var wire 1 * is_ctrl $end
$var wire 1 " is_empty $end
$var wire 1 , rst $end
$var wire 32 : _013_ [31:0] $end
$var wire 32 ; _012_ [31:0] $end
$var wire 32 < _011_ [31:0] $end
$var wire 2 = _006_ [1:0] $end
$var wire 4 > _005_ [3:0] $end
$var wire 8 ? _004_ [7:0] $end
$var wire 16 @ _003_ [15:0] $end
$var reg 32 A out [31:0] $end
$upscope $end
$scope begin $ivl_for_loop1 $end
$var integer 32 B i [31:0] $end
$upscope $end
$scope task check_outputs $end
$upscope $end
$upscope $end
$enddefinitions $end
$comment Show the parameter values. $end
$dumpall
$end
#0
$dumpvars
bx B
bx A
bx @
bx ?
bx >
bx =
bx <
bx ;
bzxx :
b0 9
x8
17
06
05
04
13
02
01
bx 0
b0 /
b0 .
1-
1,
b1010000011011110111011101100101011100100010110101101111011011100010000001110010011001010111001101100101011101000010000001110100011001010111001101110100001000000110001001100101011001100110111101110010011001010010000001100011011011000110111101100011011010110010000001100101011001000110011101100101 +
0*
b0 )
b0 (
1'
0&
0%
0$
0#
x"
bx !
$end
#400
b10 /
#500
0"
18
b1 =
b1 >
b1 ?
b1 @
b11 !
b11 A
1$
#1000
03
0$
0,
b10100000110111101110011011101000010110101110010011001010111001101100101011101000010000001110100011001010111001101110100 +
#1500
1$
#2000
11
13
14
bz00 :
0$
1%
b101001101111001011011100110001101101000011100100110111101101110011011110111010101110011001000000110001101101100011100100010000001110010011001010111001101100101011101000010000001110100011001010111001101110100 +
b100 /
#2400
b110 /
#2500
1"
08
b0 =
b0 >
b0 ?
b0 @
b0 !
b0 A
1$
#3000
01
03
04
bzxx :
0$
0%
b10000110110110001101111011000110110101100100000011010010110111000100000001101010010110000100000011011100110111100100000011001010110111001100001011000100110110001100101 +
b1000 /
b10 .
#3400
b101 )
b101 9
#3500
1$
#4000
bz01 :
b1 ;
b1 <
12
11
16
0$
b1 )
b1 9
0'
b1 (
b1 B
1&
0-
b1010 /
b100 .
#4500
0"
18
b1 =
b1 >
b1 ?
b10001 ;
b1 @
b10001 <
b1 !
b1 A
1$
#4600
b1100 /
b110 .
b10000110110110001101111011000110110101100100000011010010110111000100000001100010010110000100000011001010110111001100001011000100110110001100101011001000000000000000000000000000000000000000000000000000000000000000000000000000000000000000000000000000000000000000000000000000000000000000000000000000000000000000000000000000000000000000000000000000000000000000000000000000000000000000000 +
b110000 0
#5000
bz10 :
b10010 ;
b10010 <
b10 )
b10 9
b10010 (
b10 B
0$
#5500
b11 ?
b100100010 ;
b101 @
b100100010 <
b10010 !
b10010 A
1$
#5600
b1110 /
b1000 .
b10000110110110001101111011000110110101100100000011010010110111000100000001100100010110000100000011001010110111001100001011000100110110001100101011001000000000000000000000000000000000000000000000000000000000000000000000000000000000000000000000000000000000000000000000000000000000000000000000000000000000000000000000000000000000000000000000000000000000000000000000000000000000000000000 +
b110000 0
#6000
bz11 :
b100100011 ;
b100100011 <
b11 )
b11 9
b100100011 (
b11 B
0$
#6500
b11 >
b111 ?
b1001000110011 ;
b10101 @
b1001000110011 <
b100100011 !
b100100011 A
1$
#6600
b10000 /
b1010 .
b10000110110110001101111011000110110101100100000011010010110111000100000001100110010110000100000011001010110111001100001011000100110110001100101011001000000000000000000000000000000000000000000000000000000000000000000000000000000000000000000000000000000000000000000000000000000000000000000000000000000000000000000000000000000000000000000000000000000000000000000000000000000000000000000 +
b110000 0
#7000
bz00 :
b1001000110100 ;
b1001000110100 <
b100 )
b100 9
b1001000110100 (
b100 B
0$
#7500
b1111 ?
b10010001101000100 ;
b1010110 @
b10010001101000100 <
b1001000110100 !
b1001000110100 A
1$
#7600
b10010 /
b1100 .
b10000110110110001101111011000110110101100100000011010010110111000100000001101000010110000100000011001010110111001100001011000100110110001100101011001000000000000000000000000000000000000000000000000000000000000000000000000000000000000000000000000000000000000000000000000000000000000000000000000000000000000000000000000000000000000000000000000000000000000000000000000000000000000000000 +
b110000 0
#8000
bz01 :
b10010001101000101 ;
b10010001101000101 <
b101 )
b101 9
b10010001101000101 (
b101 B
0$
#8500
b11 =
b111 >
b11111 ?
b100100011010001010101 ;
b101011011 @
b100100011010001010101 <
b10010001101000101 !
b10010001101000101 A
1$
#8600
b10100 /
b1110 .
b10000110110110001101111011000110110101100100000011010010110111000100000001101010010110000100000011001010110111001100001011000100110110001100101011001000000000000000000000000000000000000000000000000000000000000000000000000000000000000000000000000000000000000000000000000000000000000000000000000000000000000000000000000000000000000000000000000000000000000000000000000000000000000000000 +
b110000 0
#9000
bz10 :
b100100011010001010110 ;
b100100011010001010110 <
b110 )
b110 9
b100100011010001010110 (
b110 B
0$
#9500
b111111 ?
b1001000110100010101100110 ;
b10101101111 @
b1001000110100010101100110 <
b100100011010001010110 !
b100100011010001010110 A
1$
#9600
b10110 /
b10000 .
b10000110110110001101111011000110110101100100000011010010110111000100000001101100010110000100000011001010110111001100001011000100110110001100101011001000000000000000000000000000000000000000000000000000000000000000000000000000000000000000000000000000000000000000000000000000000000000000000000000000000000000000000000000000000000000000000000000000000000000000000000000000000000000000000 +
b110000 0
#10000
bz11 :
b1001000110100010101100111 ;
b1001000110100010101100111 <
b111 )
b111 9
b1001000110100010101100111 (
b111 B
0$
#10500
b1111 >
b1111111 ?
b10010001101000101011001110111 ;
b1010110111111 @
b10010001101000101011001110111 <
b1001000110100010101100111 !
b1001000110100010101100111 A
1$
#10600
b11000 /
b10010 .
b10000110110110001101111011000110110101100100000011010010110111000100000001101110010110000100000011001010110111001100001011000100110110001100101011001000000000000000000000000000000000000000000000000000000000000000000000000000000000000000000000000000000000000000000000000000000000000000000000000000000000000000000000000000000000000000000000000000000000000000000000000000000000000000000 +
b110000 0
#11000
bz00 :
b10010001101000101011001111000 ;
b10010001101000101011001111000 <
b1000 )
b1000 9
b10010001101000101011001111000 (
b1000 B
0$
#11500
b11111111 ?
b100011010001010110011110001000 ;
b101011011111110 @
b100011010001010110011110001000 <
b10010001101000101011001111000 !
b10010001101000101011001111000 A
1$
#11600
b11010 /
b10100 .
b10000110110110001101111011000110110101100100000011010010110111000100000001110000010110000100000011001010110111001100001011000100110110001100101011001000000000000000000000000000000000000000000000000000000000000000000000000000000000000000000000000000000000000000000000000000000000000000000000000000000000000000000000000000000000000000000000000000000000000000000000000000000000000000000 +
b110000 0
#12000
bz01 :
b100011010001010110011110001001 ;
b100011010001010110011110001001 <
b1001 )
b1001 9
b100011010001010110011110001001 (
b1001 B
0$
#12500
b110100010101100111100010011001 ;
b101101111111011 @
b110100010101100111100010011001 <
b100011010001010110011110001001 !
b100011010001010110011110001001 A
1$
#12600
b11100 /
b10110 .
b10000110110110001101111011000110110101100100000011010010110111000100000001110010010110000100000011001010110111001100001011000100110110001100101011001000000000000000000000000000000000000000000000000000000000000000000000000000000000000000000000000000000000000000000000000000000000000000000000000000000000000000000000000000000000000000000000000000000000000000000000000000000000000000000 +
b110000 0
#13000
bz10 :
b110100010101100111100010011010 ;
b110100010101100111100010011010 <
b1010 )
b1010 9
b110100010101100111100010011010 (
b1010 B
0$
#13500
b1000101011001111000100110101010 ;
b110111111101111 @
b1000101011001111000100110101010 <
b110100010101100111100010011010 !
b110100010101100111100010011010 A
1$
#13600
b11110 /
b11000 .
b10000110110110001101111011000110110101100100000011010010110111000100000001100010011000000101100001000000110010101101110011000010110001001101100011001010110010000000000000000000000000000000000000000000000000000000000000000000000000000000000000000000000000000000000000000000000000000000000000000000000000000000000000000000000000000000000000000000000000000000000000000000000000000000000 +
b110000 0
#14000
bz11 :
b1000101011001111000100110101011 ;
b1000101011001111000100110101011 <
b1011 )
b1011 9
b1000101011001111000100110101011 (
b1011 B
0$
#14500
b1010110011110001001101010111011 ;
b1010110011110001001101010111011 <
b1011111110111111 @
b1000101011001111000100110101011 !
b1000101011001111000100110101011 A
1$
#14600
b100000 /
b11010 .
b10000110110110001101111011000110110101100100000011010010110111000100000001100010011000100101100001000000110010101101110011000010110001001101100011001010110010000000000000000000000000000000000000000000000000000000000000000000000000000000000000000000000000000000000000000000000000000000000000000000000000000000000000000000000000000000000000000000000000000000000000000000000000000000000 +
b110000 0
#15000
bz00 :
b1010110011110001001101010111100 ;
b1010110011110001001101010111100 <
b1100 )
b1100 9
b1010110011110001001101010111100 (
b1100 B
0$
#15500
b1100111100010011010101111001100 ;
b1111111011111110 @
b1100111100010011010101111001100 <
b1010110011110001001101010111100 !
b1010110011110001001101010111100 A
1$
#15600
b100010 /
b11100 .
b10000110110110001101111011000110110101100100000011010010110111000100000001100010011001000101100001000000110010101101110011000010110001001101100011001010110010000000000000000000000000000000000000000000000000000000000000000000000000000000000000000000000000000000000000000000000000000000000000000000000000000000000000000000000000000000000000000000000000000000000000000000000000000000000 +
b110000 0
#16000
bz01 :
b1100111100010011010101111001101 ;
b1100111100010011010101111001101 <
b1101 )
b1101 9
b1100111100010011010101111001101 (
b1101 B
0$
#16500
b1111000100110101011110011011101 ;
b1111101111111011 @
b1111000100110101011110011011101 <
b1100111100010011010101111001101 !
b1100111100010011010101111001101 A
1$
#16600
b100100 /
b11110 .
b10000110110110001101111011000110110101100100000011010010110111000100000001100010011001100101100001000000110010101101110011000010110001001101100011001010110010000000000000000000000000000000000000000000000000000000000000000000000000000000000000000000000000000000000000000000000000000000000000000000000000000000000000000000000000000000000000000000000000000000000000000000000000000000000 +
b110000 0
#17000
bz10 :
b1111000100110101011110011011110 ;
b1111000100110101011110011011110 <
b1110 )
b1110 9
b1111000100110101011110011011110 (
b1110 B
0$
#17500
b10001001101010111100110111101110 ;
b1110111111101111 @
b10001001101010111100110111101110 <
b1111000100110101011110011011110 !
b1111000100110101011110011011110 A
1$
#17600
b100110 /
b100000 .
b10000110110110001101111011000110110101100100000011010010110111000100000001100010011010000101100001000000110010101101110011000010110001001101100011001010110010000000000000000000000000000000000000000000000000000000000000000000000000000000000000000000000000000000000000000000000000000000000000000000000000000000000000000000000000000000000000000000000000000000000000000000000000000000000 +
b110000 0
#18000
bz11 :
b10001001101010111100110111101111 ;
b10001001101010111100110111101111 <
b1111 )
b1111 9
b10001001101010111100110111101111 (
b1111 B
0$
#18500
b10011010101111001101111011111111 ;
b10011010101111001101111011111111 <
b1011111110111111 @
b10001001101010111100110111101111 !
b10001001101010111100110111101111 A
1$
#18600
b101000 /
b100010 .
b10000110110110001101111011000110110101100100000011010010110111000100000001100010011010100101100001000000110010101101110011000010110001001101100011001010110010000000000000000000000000000000000000000000000000000000000000000000000000000000000000000000000000000000000000000000000000000000000000000000000000000000000000000000000000000000000000000000000000000000000000000000000000000000000 +
b110000 0
#19000
bz10 :
b1000100110101011110011011110 ;
14
15
1#
b1000100110101011110011011110 (
b10000100110000101100011011010110111001101110000011000010110001101100101001000000111011101101001011101000110100000100000011001010110111001100001011000100110110001100101 +
1-
b10000 B
0$
#19500
b1111111 ?
bz01 :
b10111111101111 @
b100010011010101111001101 ;
b10001001101010111100110111101111 <
b1000100110101011110011011110 !
b1000100110101011110011011110 A
1$
#20000
bzxx :
01
bx ;
04
bx <
02
05
06
0$
0&
b10000100110000101100011011010110111001101110000011000010110001101100101001000000111011101101001011101000110100000100000011011100110111100100000011001010110111001100001011000100110110001100101 +
b101010 /
b100100 .
#20500
1$
#21000
11
13
14
bz00 :
0$
1'
b0 (
1%
b101000001101111011100110111010000101101011011110111000001100101011100100110000101110100011010010110111101101110001000000111001101111001011011100110001101101000011100100110111101101110011011110111010101110011001000000110001101101100011100100010000001110010011001010111001101100101011101000010000001110100011001010111001101110100 +
b101100 /
b100110 .
#21500
1"
08
b0 =
b0 >
b0 ?
b0 @
b0 !
b0 A
1$
#22000
07
0$
b101 )
b101 9
1*
b1101001011100110101111101100011011101000111001001101100001111010011000100101100001000000110100101101110011100110110010101110010011101000010000001100011011010000110000101110010 +
b101110 /
b101000 .
#22500
1$
#23000
0$
1,
b1000110011010010110111001100001011011000010000001110010011001010111001101100101011101000010000001110100011001010111001101110100 +
b110000 /
b101010 .
#23500
0"
18
b1 =
b1 >
b1 ?
b1 @
b11 !
b11 A
1$
#24000
0$
b110010 /
