Lab Files/Lab 9/lab09.vcd
$date
	Thu Mar 23 15:06:53 2023
$end
$version
	Icarus Verilog
$end
$timescale
	1s
$end
$scope module lab_testbench $end
$var wire 8 ! ctr [7:0] $end
$var reg 8 " ans [7:0] $end
$var reg 1 # clk $end
$var reg 1 $ enable $end
$var reg 1 % errored $end
$var reg 1 & mode $end
$var reg 1 ' rst $end
$var reg 1024 ( testname [1023:0] $end
$var integer 32 ) STDERR [31:0] $end
$var integer 32 * i [31:0] $end
$scope module c8_1 $end
$var wire 1 # CLK $end
$var wire 1 & DIR $end
$var wire 1 $ E $end
$var wire 8 + MAX [7:0] $end
$var wire 1 ' RST $end
$var reg 8 , Q [7:0] $end
$var reg 8 - next_Q [7:0] $end
$upscope $end
$scope task clock $end
$upscope $end
$upscope $end
$enddefinitions $end
$comment Show the parameter values. $end
$dumpall
$end
#0
$dumpvars
b1100011 -
b0 ,
b1100011 +
bx *
b10000000000000000000000000000010 )
b1100011011011110111010101101110011101000011100001100100011101010010000001010010011001010111001101100101011101000010000001010100011001010111001101110100 (
1'
0&
0%
1$
1#
bx "
b0 !
$end
#1
0#
#2
1#
#3
0#
#4
1#
#5
0#
#6
1#
#7
0#
#8
1#
#9
0#
#10
1#
#11
0#
#12
1#
#13
0#
#14
1#
#15
0#
#16
1#
#17
0#
#18
1#
#19
0#
#22
b0 -
1#
0'
0$
b110001101101111011101010110111001110100001110000110010001110101001000000100010101101110011000010110001001101100011001010010000001010100011001010111001101110100 (
#23
0#
#24
1#
#25
0#
#26
1#
#27
0#
#28
1#
#29
0#
#30
1#
#31
0#
#32
1#
#33
0#
#34
1#
#35
0#
#36
1#
#37
0#
#38
1#
#39
0#
#40
1#
#41
0#
#44
b1 !
b1 ,
b10 -
1#
b0 *
1&
1$
b1100011011011110111010101101110011101000011100001100100011101010010000001000011011011110111010101101110011101000010110101010101011100000010000001010100011001010111001101110100 (
#45
0#
#46
b11 -
b10 !
b10 ,
1#
b1 *
#47
0#
#48
b100 -
b11 !
b11 ,
1#
b10 *
#49
0#
#50
b101 -
b100 !
b100 ,
1#
b11 *
#51
0#
#52
b110 -
b101 !
b101 ,
1#
b100 *
#53
0#
#54
b111 -
b110 !
b110 ,
1#
b101 *
#55
0#
#56
b1000 -
b111 !
b111 ,
1#
b110 *
#57
0#
#58
b1001 -
b1000 !
b1000 ,
1#
b111 *
#59
0#
#60
b1010 -
b1001 !
b1001 ,
1#
b1000 *
#61
0#
#62
b1011 -
b1010 !
b1010 ,
1#
b1001 *
#63
0#
#64
b1100 -
b1011 !
b1011 ,
1#
b1010 *
#65
0#
#66
b1101 -
b1100 !
b1100 ,
1#
b1011 *
#67
0#
#68
b1110 -
b1101 !
b1101 ,
1#
b1100 *
#69
0#
#70
b1111 -
b1110 !
b1110 ,
1#
b1101 *
#71
0#
#72
b10000 -
b1111 !
b1111 ,
1#
b1110 *
#73
0#
#74
b10001 -
b10000 !
b10000 ,
1#
b1111 *
#75
0#
#76
b10010 -
b10001 !
b10001 ,
1#
b10000 *
#77
0#
#78
b10011 -
b10010 !
b10010 ,
1#
b10001 *
#79
0#
#80
b10100 -
b10011 !
b10011 ,
1#
b10010 *
#81
0#
#82
b10101 -
b10100 !
b10100 ,
1#
b10011 *
#83
0#
#84
b10110 -
b10101 !
b10101 ,
1#
b10100 *
#85
0#
#86
b10111 -
b10110 !
b10110 ,
1#
b10101 *
#87
0#
#88
b11000 -
b10111 !
b10111 ,
1#
b10110 *
#89
0#
#90
b11001 -
b11000 !
b11000 ,
1#
b10111 *
#91
0#
#92
b11010 -
b11001 !
b11001 ,
1#
b11000 *
#93
0#
#94
b11011 -
b11010 !
b11010 ,
1#
b11001 *
#95
0#
#96
b11100 -
b11011 !
b11011 ,
1#
b11010 *
#97
0#
#98
b11101 -
b11100 !
b11100 ,
1#
b11011 *
#99
0#
#100
b11110 -
b11101 !
b11101 ,
1#
b11100 *
#101
0#
#102
b11111 -
b11110 !
b11110 ,
1#
b11101 *
#103
0#
#104
b100000 -
b11111 !
b11111 ,
1#
b11110 *
#105
0#
#106
b100001 -
b100000 !
b100000 ,
1#
b11111 *
#107
0#
#108
b100010 -
b100001 !
b100001 ,
1#
b100000 *
#109
0#
#110
b100011 -
b100010 !
b100010 ,
1#
b100001 *
#111
0#
#112
b100100 -
b100011 !
b100011 ,
1#
b100010 *
#113
0#
#114
b100101 -
b100100 !
b100100 ,
1#
b100011 *
#115
0#
#116
b100110 -
b100101 !
b100101 ,
1#
b100100 *
#117
0#
#118
b100111 -
b100110 !
b100110 ,
1#
b100101 *
#119
0#
#120
b101000 -
b100111 !
b100111 ,
1#
b100110 *
#121
0#
#122
b101001 -
b101000 !
b101000 ,
1#
b100111 *
#123
0#
#124
b101010 -
b101001 !
b101001 ,
1#
b101000 *
#125
0#
#126
b101011 -
b101010 !
b101010 ,
1#
b101001 *
#127
0#
#128
b101100 -
b101011 !
b101011 ,
1#
b101010 *
#129
0#
#130
b101101 -
b101100 !
b101100 ,
1#
b101011 *
#131
0#
#132
b101110 -
b101101 !
b101101 ,
1#
b101100 *
#133
0#
#134
b101111 -
b101110 !
b101110 ,
1#
b101101 *
#135
0#
#136
b110000 -
b101111 !
b101111 ,
1#
b101110 *
#137
0#
#138
b110001 -
b110000 !
b110000 ,
1#
b101111 *
#139
0#
#140
b110010 -
b110001 !
b110001 ,
1#
b110000 *
#141
0#
#142
b110011 -
b110010 !
b110010 ,
1#
b110001 *
#143
0#
#144
b110100 -
b110011 !
b110011 ,
1#
b110010 *
#145
0#
#146
b110101 -
b110100 !
b110100 ,
1#
b110011 *
#147
0#
#148
b110110 -
b110101 !
b110101 ,
1#
b110100 *
#149
0#
#150
b110111 -
b110110 !
b110110 ,
1#
b110101 *
#151
0#
#152
b111000 -
b110111 !
b110111 ,
1#
b110110 *
#153
0#
#154
b111001 -
b111000 !
b111000 ,
1#
b110111 *
#155
0#
#156
b111010 -
b111001 !
b111001 ,
1#
b111000 *
#157
0#
#158
b111011 -
b111010 !
b111010 ,
1#
b111001 *
#159
0#
#160
b111100 -
b111011 !
b111011 ,
1#
b111010 *
#161
0#
#162
b111101 -
b111100 !
b111100 ,
1#
b111011 *
#163
0#
#164
b111110 -
b111101 !
b111101 ,
1#
b111100 *
#165
0#
#166
b111111 -
b111110 !
b111110 ,
1#
b111101 *
#167
0#
#168
b1000000 -
b111111 !
b111111 ,
1#
b111110 *
#169
0#
#170
b1000001 -
b1000000 !
b1000000 ,
1#
b111111 *
#171
0#
#172
b1000010 -
b1000001 !
b1000001 ,
1#
b1000000 *
#173
0#
#174
b1000011 -
b1000010 !
b1000010 ,
1#
b1000001 *
#175
0#
#176
b1000100 -
b1000011 !
b1000011 ,
1#
b1000010 *
#177
0#
#178
b1000101 -
b1000100 !
b1000100 ,
1#
b1000011 *
#179
0#
#180
b1000110 -
b1000101 !
b1000101 ,
1#
b1000100 *
#181
0#
#182
b1000111 -
b1000110 !
b1000110 ,
1#
b1000101 *
#183
0#
#184
b1001000 -
b1000111 !
b1000111 ,
1#
b1000110 *
#185
0#
#186
b1001001 -
b1001000 !
b1001000 ,
1#
b1000111 *
#187
0#
#188
b1001010 -
b1001001 !
b1001001 ,
1#
b1001000 *
#189
0#
#190
b1001011 -
b1001010 !
b1001010 ,
1#
b1001001 *
#191
0#
#192
b1001100 -
b1001011 !
b1001011 ,
1#
b1001010 *
#193
0#
#194
b1001101 -
b1001100 !
b1001100 ,
1#
b1001011 *
#195
0#
#196
b1001110 -
b1001101 !
b1001101 ,
1#
b1001100 *
#197
0#
#198
b1001111 -
b1001110 !
b1001110 ,
1#
b1001101 *
#199
0#
#200
b1010000 -
b1001111 !
b1001111 ,
1#
b1001110 *
#201
0#
#202
b1010001 -
b1010000 !
b1010000 ,
1#
b1001111 *
#203
0#
#204
b1010010 -
b1010001 !
b1010001 ,
1#
b1010000 *
#205
0#
#206
b1010011 -
b1010010 !
b1010010 ,
1#
b1010001 *
#207
0#
#208
b1010100 -
b1010011 !
b1010011 ,
1#
b1010010 *
#209
0#
#210
b1010101 -
b1010100 !
b1010100 ,
1#
b1010011 *
#211
0#
#212
b1010110 -
b1010101 !
b1010101 ,
1#
b1010100 *
#213
0#
#214
b1010111 -
b1010110 !
b1010110 ,
1#
b1010101 *
#215
0#
#216
b1011000 -
b1010111 !
b1010111 ,
1#
b1010110 *
#217
0#
#218
b1011001 -
b1011000 !
b1011000 ,
1#
b1010111 *
#219
0#
#220
b1011010 -
b1011001 !
b1011001 ,
1#
b1011000 *
#221
0#
#222
b1011011 -
b1011010 !
b1011010 ,
1#
b1011001 *
#223
0#
#224
b1011100 -
b1011011 !
b1011011 ,
1#
b1011010 *
#225
0#
#226
b1011101 -
b1011100 !
b1011100 ,
1#
b1011011 *
#227
0#
#228
b1011110 -
b1011101 !
b1011101 ,
1#
b1011100 *
#229
0#
#230
b1011111 -
b1011110 !
b1011110 ,
1#
b1011101 *
#231
0#
#232
b1100000 -
b1011111 !
b1011111 ,
1#
b1011110 *
#233
0#
#234
b1100001 -
b1100000 !
b1100000 ,
1#
b1011111 *
#235
0#
#236
b1100010 -
b1100001 !
b1100001 ,
1#
b1100000 *
#237
0#
#238
b1100011 -
b1100010 !
b1100010 ,
1#
b1100001 *
#239
0#
#240
b0 -
b1100011 !
b1100011 ,
1#
b1100010 *
#241
0#
#242
b1 -
b0 !
b0 ,
1#
b1100011 *
#243
0#
#244
b10 -
b1 !
b1 ,
1#
b1100100 *
#245
0#
#246
b11 -
b10 !
b10 ,
1#
b1100101 *
#247
0#
#248
b100 -
b11 !
b11 ,
1#
b1100110 *
#249
0#
#250
b101 -
b100 !
b100 ,
1#
b1100111 *
#251
0#
#252
b110 -
b101 !
b101 ,
1#
b1101000 *
#253
0#
#254
b111 -
b110 !
b110 ,
1#
b1101001 *
#255
0#
#256
b1000 -
b111 !
b111 ,
1#
b1101010 *
#257
0#
#258
b1001 -
b1000 !
b1000 ,
1#
b1101011 *
#259
0#
#260
b1010 -
b1001 !
b1001 ,
1#
b1101100 *
#261
0#
#262
b1011 -
b1010 !
b1010 ,
1#
b1101101 *
#263
0#
#264
b1 -
b0 !
b0 ,
1'
b1101110 *
#266
0'
#268
b1100011 !
b1100011 ,
b1100010 -
1#
b0 "
b0 *
0&
b11000110110111101110101011011100111010000111000011001000111010100100000010000110110111101110101011011100111010000101101010001000110111101110111011011100010000001010100011001010111001101110100 (
#269
0#
#270
b1100001 -
b1100010 !
b1100010 ,
1#
b1100011 "
b1 *
#271
0#
#272
b1100000 -
b1100001 !
b1100001 ,
1#
b1100010 "
b10 *
#273
0#
#274
b1011111 -
b1100000 !
b1100000 ,
1#
b1100001 "
b11 *
#275
0#
#276
b1011110 -
b1011111 !
b1011111 ,
1#
b1100000 "
b100 *
#277
0#
#278
b1011101 -
b1011110 !
b1011110 ,
1#
b1011111 "
b101 *
#279
0#
#280
b1011100 -
b1011101 !
b1011101 ,
1#
b1011110 "
b110 *
#281
0#
#282
b1011011 -
b1011100 !
b1011100 ,
1#
b1011101 "
b111 *
#283
0#
#284
b1011010 -
b1011011 !
b1011011 ,
1#
b1011100 "
b1000 *
#285
0#
#286
b1011001 -
b1011010 !
b1011010 ,
1#
b1011011 "
b1001 *
#287
0#
#288
b1011000 -
b1011001 !
b1011001 ,
1#
b1011010 "
b1010 *
#289
0#
#290
b1010111 -
b1011000 !
b1011000 ,
1#
b1011001 "
b1011 *
#291
0#
#292
b1010110 -
b1010111 !
b1010111 ,
1#
b1011000 "
b1100 *
#293
0#
#294
b1010101 -
b1010110 !
b1010110 ,
1#
b1010111 "
b1101 *
#295
0#
#296
b1010100 -
b1010101 !
b1010101 ,
1#
b1010110 "
b1110 *
#297
0#
#298
b1010011 -
b1010100 !
b1010100 ,
1#
b1010101 "
b1111 *
#299
0#
#300
b1010010 -
b1010011 !
b1010011 ,
1#
b1010100 "
b10000 *
#301
0#
#302
b1010001 -
b1010010 !
b1010010 ,
1#
b1010011 "
b10001 *
#303
0#
#304
b1010000 -
b1010001 !
b1010001 ,
1#
b1010010 "
b10010 *
#305
0#
#306
b1001111 -
b1010000 !
b1010000 ,
1#
b1010001 "
b10011 *
#307
0#
#308
b1001110 -
b1001111 !
b1001111 ,
1#
b1010000 "
b10100 *
#309
0#
#310
b1001101 -
b1001110 !
b1001110 ,
1#
b1001111 "
b10101 *
#311
0#
#312
b1001100 -
b1001101 !
b1001101 ,
1#
b1001110 "
b10110 *
#313
0#
#314
b1001011 -
b1001100 !
b1001100 ,
1#
b1001101 "
b10111 *
#315
0#
#316
b1001010 -
b1001011 !
b1001011 ,
1#
b1001100 "
b11000 *
#317
0#
#318
b1001001 -
b1001010 !
b1001010 ,
1#
b1001011 "
b11001 *
#319
0#
#320
b1001000 -
b1001001 !
b1001001 ,
1#
b1001010 "
b11010 *
#321
0#
#322
b1000111 -
b1001000 !
b1001000 ,
1#
b1001001 "
b11011 *
#323
0#
#324
b1000110 -
b1000111 !
b1000111 ,
1#
b1001000 "
b11100 *
#325
0#
#326
b1000101 -
b1000110 !
b1000110 ,
1#
b1000111 "
b11101 *
#327
0#
#328
b1000100 -
b1000101 !
b1000101 ,
1#
b1000110 "
b11110 *
#329
0#
#330
b1000011 -
b1000100 !
b1000100 ,
1#
b1000101 "
b11111 *
#331
0#
#332
b1000010 -
b1000011 !
b1000011 ,
1#
b1000100 "
b100000 *
#333
0#
#334
b1000001 -
b1000010 !
b1000010 ,
1#
b1000011 "
b100001 *
#335
0#
#336
b1000000 -
b1000001 !
b1000001 ,
1#
b1000010 "
b100010 *
#337
0#
#338
b111111 -
b1000000 !
b1000000 ,
1#
b1000001 "
b100011 *
#339
0#
#340
b111110 -
b111111 !
b111111 ,
1#
b1000000 "
b100100 *
#341
0#
#342
b111101 -
b111110 !
b111110 ,
1#
b111111 "
b100101 *
#343
0#
#344
b111100 -
b111101 !
b111101 ,
1#
b111110 "
b100110 *
#345
0#
#346
b111011 -
b111100 !
b111100 ,
1#
b111101 "
b100111 *
#347
0#
#348
b111010 -
b111011 !
b111011 ,
1#
b111100 "
b101000 *
#349
0#
#350
b111001 -
b111010 !
b111010 ,
1#
b111011 "
b101001 *
#351
0#
#352
b111000 -
b111001 !
b111001 ,
1#
b111010 "
b101010 *
#353
0#
#354
b110111 -
b111000 !
b111000 ,
1#
b111001 "
b101011 *
#355
0#
#356
b110110 -
b110111 !
b110111 ,
1#
b111000 "
b101100 *
#357
0#
#358
b110101 -
b110110 !
b110110 ,
1#
b110111 "
b101101 *
#359
0#
#360
b110100 -
b110101 !
b110101 ,
1#
b110110 "
b101110 *
#361
0#
#362
b110011 -
b110100 !
b110100 ,
1#
b110101 "
b101111 *
#363
0#
#364
b110010 -
b110011 !
b110011 ,
1#
b110100 "
b110000 *
#365
0#
#366
b110001 -
b110010 !
b110010 ,
1#
b110011 "
b110001 *
#367
0#
#368
b110000 -
b110001 !
b110001 ,
1#
b110010 "
b110010 *
#369
0#
#370
b101111 -
b110000 !
b110000 ,
1#
b110001 "
b110011 *
#371
0#
#372
b101110 -
b101111 !
b101111 ,
1#
b110000 "
b110100 *
#373
0#
#374
b101101 -
b101110 !
b101110 ,
1#
b101111 "
b110101 *
#375
0#
#376
b101100 -
b101101 !
b101101 ,
1#
b101110 "
b110110 *
#377
0#
#378
b101011 -
b101100 !
b101100 ,
1#
b101101 "
b110111 *
#379
0#
#380
b101010 -
b101011 !
b101011 ,
1#
b101100 "
b111000 *
#381
0#
#382
b101001 -
b101010 !
b101010 ,
1#
b101011 "
b111001 *
#383
0#
#384
b101000 -
b101001 !
b101001 ,
1#
b101010 "
b111010 *
#385
0#
#386
b100111 -
b101000 !
b101000 ,
1#
b101001 "
b111011 *
#387
0#
#388
b100110 -
b100111 !
b100111 ,
1#
b101000 "
b111100 *
#389
0#
#390
b100101 -
b100110 !
b100110 ,
1#
b100111 "
b111101 *
#391
0#
#392
b100100 -
b100101 !
b100101 ,
1#
b100110 "
b111110 *
#393
0#
#394
b100011 -
b100100 !
b100100 ,
1#
b100101 "
b111111 *
#395
0#
#396
b100010 -
b100011 !
b100011 ,
1#
b100100 "
b1000000 *
#397
0#
#398
b100001 -
b100010 !
b100010 ,
1#
b100011 "
b1000001 *
#399
0#
#400
b100000 -
b100001 !
b100001 ,
1#
b100010 "
b1000010 *
#401
0#
#402
b11111 -
b100000 !
b100000 ,
1#
b100001 "
b1000011 *
#403
0#
#404
b11110 -
b11111 !
b11111 ,
1#
b100000 "
b1000100 *
#405
0#
#406
b11101 -
b11110 !
b11110 ,
1#
b11111 "
b1000101 *
#407
0#
#408
b11100 -
b11101 !
b11101 ,
1#
b11110 "
b1000110 *
#409
0#
#410
b11011 -
b11100 !
b11100 ,
1#
b11101 "
b1000111 *
#411
0#
#412
b11010 -
b11011 !
b11011 ,
1#
b11100 "
b1001000 *
#413
0#
#414
b11001 -
b11010 !
b11010 ,
1#
b11011 "
b1001001 *
#415
0#
#416
b11000 -
b11001 !
b11001 ,
1#
b11010 "
b1001010 *
#417
0#
#418
b10111 -
b11000 !
b11000 ,
1#
b11001 "
b1001011 *
#419
0#
#420
b10110 -
b10111 !
b10111 ,
1#
b11000 "
b1001100 *
#421
0#
#422
b10101 -
b10110 !
b10110 ,
1#
b10111 "
b1001101 *
#423
0#
#424
b10100 -
b10101 !
b10101 ,
1#
b10110 "
b1001110 *
#425
0#
#426
b10011 -
b10100 !
b10100 ,
1#
b10101 "
b1001111 *
#427
0#
#428
b10010 -
b10011 !
b10011 ,
1#
b10100 "
b1010000 *
#429
0#
#430
b10001 -
b10010 !
b10010 ,
1#
b10011 "
b1010001 *
#431
0#
#432
b10000 -
b10001 !
b10001 ,
1#
b10010 "
b1010010 *
#433
0#
#434
b1111 -
b10000 !
b10000 ,
1#
b10001 "
b1010011 *
#435
0#
#436
b1110 -
b1111 !
b1111 ,
1#
b10000 "
b1010100 *
#437
0#
#438
b1101 -
b1110 !
b1110 ,
1#
b1111 "
b1010101 *
#439
0#
#440
b1100 -
b1101 !
b1101 ,
1#
b1110 "
b1010110 *
#441
0#
#442
b1011 -
b1100 !
b1100 ,
1#
b1101 "
b1010111 *
#443
0#
#444
b1010 -
b1011 !
b1011 ,
1#
b1100 "
b1011000 *
#445
0#
#446
b1001 -
b1010 !
b1010 ,
1#
b1011 "
b1011001 *
#447
0#
#448
b1000 -
b1001 !
b1001 ,
1#
b1010 "
b1011010 *
#449
0#
#450
b111 -
b1000 !
b1000 ,
1#
b1001 "
b1011011 *
#451
0#
#452
b110 -
b111 !
b111 ,
1#
b1000 "
b1011100 *
#453
0#
#454
b101 -
b110 !
b110 ,
1#
b111 "
b1011101 *
#455
0#
#456
b100 -
b101 !
b101 ,
1#
b110 "
b1011110 *
#457
0#
#458
b11 -
b100 !
b100 ,
1#
b101 "
b1011111 *
#459
0#
#460
b10 -
b11 !
b11 ,
1#
b100 "
b1100000 *
#461
0#
#462
b1 -
b10 !
b10 ,
1#
b11 "
b1100001 *
#463
0#
#464
b0 -
b1 !
b1 ,
1#
b10 "
b1100010 *
#465
0#
#466
b1100011 -
b0 !
b0 ,
1#
b1 "
b1100011 *
#467
0#
#468
b1100100 *
